Analysing the relationship between Blood Cholesterol levels, Physical Activity, Excessive Drinking and Depression.
…
         ALQ151 != 7 & ALQ151 !=9 &
         DPQ020 != 7 & DPQ020 != 9 &
         DPQ050 != 7 & DPQ050 != 9 &
         LBDHDD != ".") |>
  filter(complete.cases(LBDHDD,PAD680,PAD675,PAQ650,ALQ151,DPQ020,DPQ050))|>
  mutate(PAQ650 = 2- PAQ650) |> 
  mutate(ALQ151 = 2- ALQ151) |>
  mutate(PAQ650 = as.factor(PAQ650)) |>
  mutate(ALQ151 = as.factor(ALQ151)) |>
  mutate(DPQ020 = as.factor(DPQ020)) |>
  mutate(DPQ050 = as.factor(DPQ050)) |>
  select(SEQN,LBDHDD,PAD680,PAD675,PAQ650,ALQ151,DPQ020,DPQ050) 
final_tib

# A tibble: 2,657 × 8
     SEQN LBDHDD PAD680 PAD675 PAQ650 ALQ151 DPQ020 DPQ050
    <dbl>  <dbl>  <dbl>  <dbl> <fct>  <fct>  <fct>  <fct> 
 1 109266     56    480     30 1      0      0      0     
 2 109273     42    180    120 0      0      2      2     
 3 109274     29    300     60 0      0      0      0     
 4 109290     40    180     90 0      0      1      0     
 5 109312     77    180    120 0      0      0      0     
 6 109313     54    300     60 1      0      0      0     
 7 109317     71    420     30 0      0      1      2     
 8 109319    110    600     60 1      0      0      0     
 9 109324     60    360     20 0      0      1      0     
10 109327     58    480     30 1      0      0      0     
# ℹ 2,647 more rows
…
