Predictors of Heavy E-Cigarette Use among Adults in the United States
…
4 The Tidy Tibble

4.1 Listing the Tibble

The tidy tibble, data_final, was listed.

Code

data_final 

# A tibble: 1,200 × 12
   personid   ecig_30day puff_num age_range less_harm ecig_reg harm_perc   
   <chr>           <int>    <int> <fct>     <fct>     <fct>    <fct>       
 1 P000319879          1       NA <18       Yes       No       less_harm   
 2 P000255041          0       NA 25to34    Yes       Yes      less_harm   
 3 P000413552          2       NA 35to44    Yes       No       same_or_more
 4 P000239368          1       NA 45to54    Yes       No       less_harm   
 5 P000334022          1       NA 35to44    Yes       No       less_harm   
 6 P000151148         25       NA 45to54    Yes       Yes      less_harm   
 7 P000423889          2       NA 45to54    No        No       same_or_more
 8 P000264820         24        4 35to44    No        No       less_harm   
 9 P000321341          2       NA 45to54    No        No       same_or_more
10 P000200073          2       NA 25to34    No        No       same_or_more
# ℹ 1,190 more rows
# ℹ 5 more variables: price_paid <fct>, ecig_nico <fct>, ecig_flavored <fct>,
#   min_num <int>, ecig_smoker <fct>
…
