Scooby Doo analytics: Quantifying what’s groovy about a pop culture icon.
…
Monster Motivation: Is it possible to predict the motive of the major antagonist of an episode of Scooby-Doo, based on the nature of the monster the antagonist appears as?

3 Data Ingest and Management

3.1 Loading the Raw Data

The data comes from Kaggle, and was part of Tidy Tuesday’s dataset for 2021-07-13, and can be found here.

Code

scooby_raw <- read_csv('scooby_doo.csv', show_col_types = F)
scooby_raw

# A tibble: 603 × 75
   index series_name   network season title imdb  engagement date_aired run_time
   <dbl> <chr>         <chr>   <chr>  <chr> <chr> <chr>      <date>        <dbl>
 1     1 Scooby Doo, … CBS     1      What… 8.1   556        1969-09-13       21
 2     2 Scooby Doo, … CBS     1      A Cl… 8.1   479        1969-09-20       22
 3     3 Scooby Doo, … CBS     1      Hass… 8     455        1969-09-27       21
 4     4 Scooby Doo, … CBS     1      Mine… 7.8   426        1969-10-04       21
 5     5 Scooby Doo, … CBS     1      Deco… 7.5   391        1969-10-11       21
 6     6 Scooby Doo, … CBS     1      What… 8.4   384        1969-10-18       21
 7     7 Scooby Doo, … CBS     1      Neve… 7.6   358        1969-10-25       21
 8     8 Scooby Doo, … CBS     1      Foul… 8.2   358        1969-11-01       21
 9     9 Scooby Doo, … CBS     1      The … 8.1   371        1969-11-08       21
10    10 Scooby Doo, … CBS     1      Bedl… 8     346        1969-11-15       21
# ℹ 593 more rows
# ℹ 66 more variables: format <chr>, monster_name <chr>, monster_gender <chr>,
#   monster_type <chr>, monster_subtype <chr>, monster_species <chr>,
#   monster_real <chr>, monster_amount <dbl>, caught_fred <chr>,
#   caught_daphnie <chr>, caught_velma <chr>, caught_shaggy <chr>,
#   caught_scooby <chr>, captured_fred <chr>, captured_daphnie <chr>,
#   captured_velma <chr>, captured_shaggy <chr>, captured_scooby <chr>, …
3.2 Cleaning the Data

3.2.1 Selecting Variables We’ll Use

The variables that are intended to be used for the two models were selected and placed in a tibble titled scooby_filtered.

Code

scooby_filtered <- scooby_raw |>
  select(index, imdb, engagement, network, season, rooby_rooby_roo,
         motive, monster_amount,monster_gender, monster_real) 
scooby_filtered  <- scooby_filtered %>% replace(.=="NULL", NA) # replace with NA
scooby_filtered

# A tibble: 603 × 10
   index imdb  engagement network season rooby_rooby_roo motive   monster_amount
   <dbl> <chr> <chr>      <chr>   <chr>  <chr>           <chr>             <dbl>
 1     1 8.1   556        CBS     1      1               Theft                 1
 2     2 8.1   479        CBS     1      0               Theft                 1
 3     3 8     455        CBS     1      0               Treasure              1
 4     4 7.8   426        CBS     1      0               Natural…              1
 5     5 7.5   391        CBS     1      0               Competi…              1
 6     6 8.4   384        CBS     1      1               Extorti…              1
 7     7 7.6   358        CBS     1      1               Competi…              1
 8     8 8.2   358        CBS     1      1               Safety                1
 9     9 8.1   371        CBS     1      1               Counter…              1
10    10 8     346        CBS     1      0               Competi…              1
# ℹ 593 more rows
# ℹ 2 more variables: monster_gender <chr>, monster_real <chr>
…
Code

scooby_converted <- scooby_filtered |>
  mutate(index = as.character(index),
         imdb = as.numeric(imdb), 
         engagement = as.numeric(engagement),
         network = as_factor(network),
         season = as_factor(season),
         rooby_rooby_roo = as.double(rooby_rooby_roo),
         motive = as_factor(motive),
         monster_gender = as_factor(monster_gender),
         monster_real = as_factor(monster_real))
scooby_converted

# A tibble: 603 × 10
   index  imdb engagement network season rooby_rooby_roo motive   monster_amount
   <chr> <dbl>      <dbl> <fct>   <fct>            <dbl> <fct>             <dbl>
 1 1       8.1        556 CBS     1                    1 Theft                 1
 2 2       8.1        479 CBS     1                    0 Theft                 1
 3 3       8          455 CBS     1                    0 Treasure              1
 4 4       7.8        426 CBS     1                    0 Natural…              1
 5 5       7.5        391 CBS     1                    0 Competi…              1
 6 6       8.4        384 CBS     1                    1 Extorti…              1
 7 7       7.6        358 CBS     1                    1 Competi…              1
 8 8       8.2        358 CBS     1                    1 Safety                1
 9 9       8.1        371 CBS     1                    1 Counter…              1
10 10      8          346 CBS     1                    0 Competi…              1
# ℹ 593 more rows
# ℹ 2 more variables: monster_gender <fct>, monster_real <fct>

3.2.3 Sampling the Data

scooby_converted was then filtered down to a tibble called scooby_sample that had complete cases on both the outcome variables. (rooby-rooby_roo and motive.)

Code

scooby_sample <- scooby_converted |>
  filter(complete.cases(rooby_rooby_roo, motive))
scooby_sample

# A tibble: 535 × 10
   index  imdb engagement network season rooby_rooby_roo motive   monster_amount
   <chr> <dbl>      <dbl> <fct>   <fct>            <dbl> <fct>             <dbl>
 1 1       8.1        556 CBS     1                    1 Theft                 1
 2 2       8.1        479 CBS     1                    0 Theft                 1
 3 3       8          455 CBS     1                    0 Treasure              1
 4 4       7.8        426 CBS     1                    0 Natural…              1
 5 5       7.5        391 CBS     1                    0 Competi…              1
 6 6       8.4        384 CBS     1                    1 Extorti…              1
 7 7       7.6        358 CBS     1                    1 Competi…              1
 8 8       8.2        358 CBS     1                    1 Safety                1
 9 9       8.1        371 CBS     1                    1 Counter…              1
10 10      8          346 CBS     1                    0 Competi…              1
# ℹ 525 more rows
# ℹ 2 more variables: monster_gender <fct>, monster_real <fct>
…
monster_amount
0
0.000000

The variables monster_gender, monster_real, imdb and engagement have missing values.

3.3 Print and Save The Final Tibble

Code

print(scooby_sample)

# A tibble: 535 × 10
   index  imdb engagement network   season rooby_rooby_roo motive monster_amount
   <chr> <dbl>      <dbl> <fct>     <fct>            <dbl> <fct>           <dbl>
 1 1       8.1        556 other_ne… seaso…               1 theft               1
 2 2       8.1        479 other_ne… seaso…               0 theft               1
 3 3       8          455 other_ne… seaso…               0 treas…              1
 4 4       7.8        426 other_ne… seaso…               0 indir…              1
 5 5       7.5        391 other_ne… seaso…               0 compe…              1
 6 6       8.4        384 other_ne… seaso…               1 indir…              1
 7 7       7.6        358 other_ne… seaso…               1 compe…              1
 8 8       8.2        358 other_ne… seaso…               1 indir…              1
 9 9       8.1        371 other_ne… seaso…               1 indir…              1
10 10      8          346 other_ne… seaso…               0 compe…              1
# ℹ 525 more rows
# ℹ 2 more variables: monster_gender <fct>, monster_real <fct>
…
